…
#creat new data set with only useful info and data

```r
bird_new<-bird%>%
  select(ioc_order,bl_family_english,scientific,english,diet_inv,diet_vend,diet_vect,diet_vfish,diet_vunk,diet_scav,diet_fruit,diet_nect,diet_seed,diet_plant_o,diet_5cat,for_strat_watbelowsurf,for_strat_wataroundsurf,for_strat_ground,for_strat_understory,for_strat_midhigh,for_strat_canopy,for_strat_aerial,nocturnal,body_mass_value)
bird_new
```

```
## # A tibble: 9,995 × 24
##    ioc_order    bl_family_engli… scientific english diet_inv diet_vend diet_vect
##    <chr>        <chr>            <chr>      <chr>      <dbl>     <dbl>     <dbl>
##  1 Struthionif… Ostriches        Struthio … Ostrich       10         0         0
##  2 Rheiformes   Rheas            Rhea amer… Greate…       20        10        10
##  3 Rheiformes   Rheas            Rhea penn… Lesser…       20         0         0
##  4 Casuariifor… Cassowaries      Casuarius… Southe…       10         0         0
##  5 Casuariifor… Cassowaries      Casuarius… Dwarf …       10         0         0
##  6 Casuariifor… Cassowaries      Casuarius… Northe…       20         0         0
##  7 Casuariifor… Emus             Dromaius … Emu           20         0         0
##  8 Apterygifor… Kiwis            Apteryx a… Southe…       80         0         0
##  9 Apterygifor… Kiwis            Apteryx o… Little…       80         0         0
## 10 Apterygifor… Kiwis            Apteryx h… Great …      100         0         0
## # … with 9,985 more rows, and 17 more variables: diet_vfish <dbl>,
## #   diet_vunk <dbl>, diet_scav <dbl>, diet_fruit <dbl>, diet_nect <dbl>,
## #   diet_seed <dbl>, diet_plant_o <dbl>, diet_5cat <chr>,
## #   for_strat_watbelowsurf <dbl>, for_strat_wataroundsurf <dbl>,
## #   for_strat_ground <dbl>, for_strat_understory <dbl>,
## #   for_strat_midhigh <dbl>, for_strat_canopy <dbl>, for_strat_aerial <dbl>,
## #   nocturnal <dbl>, body_mass_value <dbl>
```
…
#remove scientific notion/symbol

```r
options(scipen=999)
```

#start analyzing data

```r
bird_new%>%
  count(ioc_order)
```

```
## # A tibble: 41 × 2
##    ioc_order            n
##    <chr>            <int>
##  1 Accipitriformes    251
##  2 Anseriformes       160
##  3 Apodiformes        450
##  4 Apterygiformes       4
##  5 Bucerotiformes      66
##  6 Caprimulgiformes   114
##  7 Cariamiformes        2
##  8 Casuariiformes       4
##  9 Charadriiformes    369
## 10 Ciconiiformes       19
## # … with 31 more rows
```
…
```r
avg_bodymass
```

```
## # A tibble: 40 × 2
##    ioc_order           mean_bodymass
##    <chr>                       <dbl>
##  1 Struthioniformes          111000 
##  2 Casuariiformes             39792.
##  3 Rheiformes                 23450 
##  4 Sphenisciformes             5911.
##  5 Ciconiiformes               3484.
##  6 Gaviiformes                 3178.
##  7 Phoenicopteriformes         2790.
##  8 Otidiformes                 2628.
##  9 Apterygiformes              1975.
## 10 Suliformes                  1654.
## # … with 30 more rows
```
…
#try to analyze why there's so many 0 for population vs. migration graph

```r
bird_strat<-bird_new%>%
  select(contains("for_strat"),body_mass_value)%>%
  pivot_longer(cols = starts_with("for_strat_"),
               names_to = ("migration_strategy"),
               names_prefix = "for_start_",
               values_to = "population",
               values_drop_na = TRUE)
bird_strat
```

```
## # A tibble: 69,951 × 3
##    body_mass_value migration_strategy      population
##              <dbl> <chr>                        <dbl>
##  1          111000 for_strat_watbelowsurf           0
##  2          111000 for_strat_wataroundsurf          0
##  3          111000 for_strat_ground               100
##  4          111000 for_strat_understory             0
##  5          111000 for_strat_midhigh                0
##  6          111000 for_strat_canopy                 0
##  7          111000 for_strat_aerial                 0
##  8           23000 for_strat_watbelowsurf           0
##  9           23000 for_strat_wataroundsurf          0
## 10           23000 for_strat_ground               100
## # … with 69,941 more rows
```
…
